{
	"info": {
		"_postman_id": "2a8ecfda-f534-44d8-b63f-7f3ec2a15e32",
		"name": "Final Project",
		"schema": "https://schema.getpostman.com/json/collection/v2.1.0/collection.json"
	},
	"item": [
		{
			"name": "Users",
			"item": [
				{
					"name": "Get all students",
					"request": {
						"method": "GET",
						"header": [],
						"url": {
							"raw": "localhost:5000/users/students",
							"host": [
								"localhost"
							],
							"port": "5000",
							"path": [
								"users",
								"students"
							]
						}
					},
					"response": []
				},
				{
					"name": "Get all users",
					"request": {
						"auth": {
							"type": "bearer",
							"bearer": [
								{
									"key": "token",
									"value": "eyJhbGciOiJIUzI1NiIsInR5cCI6IkpXVCJ9.eyJpZCI6MTEsImVtYWlsIjoiYWJ2QGdvb2dsZS5jb20iLCJyb2xlIjoxLCJpYXQiOjE2MjgxNTM5NDMsImV4cCI6MTYyODE1NzU0M30.0lsZwXoD6UD_dCiKmXUi53tGc5LDAGiIUwZNNRBZAS8",
									"type": "string"
								}
							]
						},
						"method": "GET",
						"header": [],
						"url": {
							"raw": "localhost:5000/users",
							"host": [
								"localhost"
							],
							"port": "5000",
							"path": [
								"users"
							]
						}
					},
					"response": []
				},
				{
					"name": "Get all enrolled users",
					"request": {
						"method": "GET",
						"header": [],
						"url": {
							"raw": "localhost:5000/users?cid=2",
							"host": [
								"localhost"
							],
							"port": "5000",
							"path": [
								"users"
							],
							"query": [
								{
									"key": "cid",
									"value": "2"
								}
							]
						}
					},
					"response": []
				},
				{
					"name": "Get all not enrolled users",
					"request": {
						"method": "GET",
						"header": [],
						"url": {
							"raw": "localhost:5000/users?cid=3&enrolled=false",
							"host": [
								"localhost"
							],
							"port": "5000",
							"path": [
								"users"
							],
							"query": [
								{
									"key": "cid",
									"value": "3"
								},
								{
									"key": "enrolled",
									"value": "false"
								}
							]
						}
					},
					"response": []
				},
				{
					"name": "Get all teachers",
					"request": {
						"method": "GET",
						"header": [],
						"url": {
							"raw": "localhost:5000/users/teachers",
							"host": [
								"localhost"
							],
							"port": "5000",
							"path": [
								"users",
								"teachers"
							]
						}
					},
					"response": []
				},
				{
					"name": "Delete user",
					"request": {
						"method": "DELETE",
						"header": [],
						"body": {
							"mode": "raw",
							"raw": "{\r\n    \"email\": \"icosasdsadtaykov1@gmail.com\",\r\n    \"firstname\": \"Hristo\",\r\n    \"lastname\": \"Staykov\",\r\n    \"password\": \"123456\"\r\n}",
							"options": {
								"raw": {
									"language": "json"
								}
							}
						},
						"url": {
							"raw": "localhost:5000/users/3",
							"host": [
								"localhost"
							],
							"port": "5000",
							"path": [
								"users",
								"3"
							]
						}
					},
					"response": []
				},
				{
					"name": "Undelete user",
					"request": {
						"method": "PUT",
						"header": [],
						"body": {
							"mode": "raw",
							"raw": "{\r\n    \"email\": \"icosasdsadtaykov1@gmail.com\",\r\n    \"firstname\": \"Hristo\",\r\n    \"lastname\": \"Staykov\",\r\n    \"password\": \"123456\"\r\n}",
							"options": {
								"raw": {
									"language": "json"
								}
							}
						},
						"url": {
							"raw": "localhost:5000/users/3/undelete",
							"host": [
								"localhost"
							],
							"port": "5000",
							"path": [
								"users",
								"3",
								"undelete"
							]
						}
					},
					"response": []
				},
				{
					"name": "Enroll student to course",
					"request": {
						"method": "POST",
						"header": [],
						"body": {
							"mode": "raw",
							"raw": "{\r\n    \"batch\": [\r\n        1\r\n    ]\r\n}",
							"options": {
								"raw": {
									"language": "json"
								}
							}
						},
						"url": {
							"raw": "localhost:5000/users/course/2",
							"host": [
								"localhost"
							],
							"port": "5000",
							"path": [
								"users",
								"course",
								"2"
							]
						}
					},
					"response": []
				},
				{
					"name": "Enroll students to course (SUCCESS)",
					"request": {
						"method": "POST",
						"header": [],
						"body": {
							"mode": "raw",
							"raw": "{\r\n    \"batch\": [\r\n        1, 2, 3\r\n    ]\r\n}",
							"options": {
								"raw": {
									"language": "json"
								}
							}
						},
						"url": {
							"raw": "localhost:5000/users/course/2",
							"host": [
								"localhost"
							],
							"port": "5000",
							"path": [
								"users",
								"course",
								"2"
							]
						}
					},
					"response": []
				},
				{
					"name": "Enroll students to course (FAIL) 2",
					"request": {
						"method": "POST",
						"header": [],
						"body": {
							"mode": "raw",
							"raw": "{\r\n    \"batch\": [\r\n        \"1\", \"asdsad\", 3\r\n    ]\r\n}",
							"options": {
								"raw": {
									"language": "json"
								}
							}
						},
						"url": {
							"raw": "localhost:5000/users/course/7",
							"host": [
								"localhost"
							],
							"port": "5000",
							"path": [
								"users",
								"course",
								"7"
							]
						}
					},
					"response": []
				},
				{
					"name": "Enroll students to course (FAIL)",
					"request": {
						"method": "POST",
						"header": [],
						"body": {
							"mode": "raw",
							"raw": "{\r\n    \"batch\": [\r\n        1, 2, 3\r\n    ]\r\n}",
							"options": {
								"raw": {
									"language": "json"
								}
							}
						},
						"url": {
							"raw": "localhost:5000/users/course/7",
							"host": [
								"localhost"
							],
							"port": "5000",
							"path": [
								"users",
								"course",
								"7"
							]
						}
					},
					"response": []
				},
				{
					"name": "Unenroll student from course",
					"request": {
						"method": "DELETE",
						"header": [],
						"body": {
							"mode": "raw",
							"raw": "{\r\n    \"email\": \"icosasdsadtaykov1@gmail.com\",\r\n    \"firstname\": \"Hristo\",\r\n    \"lastname\": \"Staykov\",\r\n    \"password\": \"123456\"\r\n}",
							"options": {
								"raw": {
									"language": "json"
								}
							}
						},
						"url": {
							"raw": "localhost:5000/users/1/course/2",
							"host": [
								"localhost"
							],
							"port": "5000",
							"path": [
								"users",
								"1",
								"course",
								"2"
							]
						}
					},
					"response": []
				}
			]
		},
		{
			"name": "Authentication",
			"item": [
				{
					"name": "Login",
					"request": {
						"method": "POST",
						"header": [],
						"body": {
							"mode": "raw",
							"raw": "{\r\n    \"email\": \"teacher@gmail.com\",\r\n    \"password\": \"123456\"\r\n}",
							"options": {
								"raw": {
									"language": "json"
								}
							}
						},
						"url": {
							"raw": "localhost:5000/auth/login",
							"host": [
								"localhost"
							],
							"port": "5000",
							"path": [
								"auth",
								"login"
							]
						}
					},
					"response": []
				},
				{
					"name": "Logout",
					"request": {
						"auth": {
							"type": "bearer",
							"bearer": [
								{
									"key": "token",
									"value": "eyJhbGciOiJIUzI1NiIsInR5cCI6IkpXVCJ9.eyJzdWIiOjE4LCJ1c2VybmFtZSI6ImFkbWluIiwicm9sZSI6MiwiaWF0IjoxNjI3OTk0NzA0LCJleHAiOjE2Mjc5OTgzMDR9.pTnV9grrjlf6V_nSIlOezPoWacHB-T1Y-90vZxNJvjE",
									"type": "string"
								}
							]
						},
						"method": "DELETE",
						"header": [],
						"body": {
							"mode": "raw",
							"raw": "{\r\n    \"email\": \"abv@google.com\",\r\n    \"password\": \"123456\"\r\n}",
							"options": {
								"raw": {
									"language": "json"
								}
							}
						},
						"url": {
							"raw": "localhost:5000/auth/logout",
							"host": [
								"localhost"
							],
							"port": "5000",
							"path": [
								"auth",
								"logout"
							]
						}
					},
					"response": []
				},
				{
					"name": "Create user",
					"request": {
						"method": "POST",
						"header": [],
						"body": {
							"mode": "raw",
							"raw": "{\r\n    \"email\": \"teachernew@gmail.com\",\r\n    \"firstname\": \"Albert\",\r\n    \"lastname\": \"Teacherov\",\r\n    \"password\": \"123456\"\r\n}",
							"options": {
								"raw": {
									"language": "json"
								}
							}
						},
						"url": {
							"raw": "localhost:5000/auth/register",
							"host": [
								"localhost"
							],
							"port": "5000",
							"path": [
								"auth",
								"register"
							]
						}
					},
					"response": []
				}
			]
		},
		{
			"name": "Courses",
			"item": [
				{
					"name": "GET Browse All Public Courses - No Auth",
					"protocolProfileBehavior": {
						"disableBodyPruning": true
					},
					"request": {
						"method": "GET",
						"header": [],
						"body": {
							"mode": "raw",
							"raw": "{\n    \"userId\": 1,\n    \"id\": 1,\n    \"title\": \"Test\",\n    \"body\": \"First steps with Postman\"\n}",
							"options": {
								"raw": {
									"language": "json"
								}
							}
						},
						"url": {
							"raw": "localhost:5000/courses/browse",
							"host": [
								"localhost"
							],
							"port": "5000",
							"path": [
								"courses",
								"browse"
							]
						}
					},
					"response": []
				},
				{
					"name": "GET All Courses - Search, Public/Private, Pagination",
					"protocolProfileBehavior": {
						"disableBodyPruning": true
					},
					"request": {
						"auth": {
							"type": "bearer",
							"bearer": [
								{
									"key": "token",
									"value": "eyJhbGciOiJIUzI1NiIsInR5cCI6IkpXVCJ9.eyJpZCI6MiwiZW1haWwiOiJpbmFAZ21haWwuY29tIiwicm9sZSI6MSwiaWF0IjoxNjI4MjUzNzAwLCJleHAiOjE2MzY4OTM3MDB9.5HU6Dp70p-eqTT3ZmdXAIjTpaOzNAR3AkvlrYoOb0eM",
									"type": "string"
								}
							]
						},
						"method": "GET",
						"header": [],
						"body": {
							"mode": "raw",
							"raw": "{\n    \"userId\": 1,\n    \"id\": 1,\n    \"title\": \"Test\",\n    \"body\": \"First steps with Postman\"\n}",
							"options": {
								"raw": {
									"language": "json"
								}
							}
						},
						"url": {
							"raw": "localhost:5000/courses?&offset=0&limit=3",
							"host": [
								"localhost"
							],
							"port": "5000",
							"path": [
								"courses"
							],
							"query": [
								{
									"key": null,
									"value": ""
								},
								{
									"key": "offset",
									"value": "0"
								},
								{
									"key": "limit",
									"value": "3"
								}
							]
						}
					},
					"response": []
				},
				{
					"name": "GET All Public Courses",
					"protocolProfileBehavior": {
						"disableBodyPruning": true
					},
					"request": {
						"auth": {
							"type": "bearer",
							"bearer": [
								{
									"key": "token",
									"value": "eyJhbGciOiJIUzI1NiIsInR5cCI6IkpXVCJ9.eyJpZCI6MywiZW1haWwiOiJ0ZWFjaGVyQGdtYWlsLmNvbSIsInJvbGUiOjIsImlhdCI6MTYyODI0MDI2NSwiZXhwIjoxNjI4MjQzODY1fQ.ieBOphRIhZW1nzWaMK_krcjEV2TVw1CDZj83Zbr8dWU",
									"type": "string"
								}
							]
						},
						"method": "GET",
						"header": [],
						"body": {
							"mode": "raw",
							"raw": "{\n    \"userId\": 1,\n    \"id\": 1,\n    \"title\": \"Test\",\n    \"body\": \"First steps with Postman\"\n}",
							"options": {
								"raw": {
									"language": "json"
								}
							}
						},
						"url": {
							"raw": "localhost:5000/courses?isPublic=1",
							"host": [
								"localhost"
							],
							"port": "5000",
							"path": [
								"courses"
							],
							"query": [
								{
									"key": "isPublic",
									"value": "1"
								}
							]
						}
					},
					"response": []
				},
				{
					"name": "GET All Courses Search",
					"protocolProfileBehavior": {
						"disableBodyPruning": true
					},
					"request": {
						"auth": {
							"type": "bearer",
							"bearer": [
								{
									"key": "token",
									"value": "eyJhbGciOiJIUzI1NiIsInR5cCI6IkpXVCJ9.eyJpZCI6MywiZW1haWwiOiJ0ZWFjaGVyQGdtYWlsLmNvbSIsInJvbGUiOjIsImlhdCI6MTYyODI0MDI2NSwiZXhwIjoxNjI4MjQzODY1fQ.ieBOphRIhZW1nzWaMK_krcjEV2TVw1CDZj83Zbr8dWU",
									"type": "string"
								}
							]
						},
						"method": "GET",
						"header": [],
						"body": {
							"mode": "raw",
							"raw": "{\n    \"userId\": 1,\n    \"id\": 1,\n    \"title\": \"Test\",\n    \"body\": \"First steps with Postman\"\n}",
							"options": {
								"raw": {
									"language": "json"
								}
							}
						},
						"url": {
							"raw": "localhost:5000/courses?search=course",
							"host": [
								"localhost"
							],
							"port": "5000",
							"path": [
								"courses"
							],
							"query": [
								{
									"key": "search",
									"value": "course"
								}
							]
						}
					},
					"response": []
				},
				{
					"name": "Search, Public/Private, Pagination - Limit/Offset",
					"protocolProfileBehavior": {
						"disableBodyPruning": true
					},
					"request": {
						"auth": {
							"type": "bearer",
							"bearer": [
								{
									"key": "token",
									"value": "eyJhbGciOiJIUzI1NiIsInR5cCI6IkpXVCJ9.eyJpZCI6MywiZW1haWwiOiJ0ZWFjaGVyQGdtYWlsLmNvbSIsInJvbGUiOjIsImlhdCI6MTYyODMxNzAyOSwiZXhwIjoxNjM2OTU3MDI5fQ.m3L6IsYY7Sn9lK0J5Vj19YevBGOWQU73cNFymo4pOwQ",
									"type": "string"
								}
							]
						},
						"method": "GET",
						"header": [],
						"body": {
							"mode": "raw",
							"raw": "",
							"options": {
								"raw": {
									"language": "json"
								}
							}
						},
						"url": {
							"raw": "localhost:5000/courses?search=course&isPublic=0&limit=5&offset=0",
							"host": [
								"localhost"
							],
							"port": "5000",
							"path": [
								"courses"
							],
							"query": [
								{
									"key": "search",
									"value": "course"
								},
								{
									"key": "isPublic",
									"value": "0"
								},
								{
									"key": "limit",
									"value": "5"
								},
								{
									"key": "offset",
									"value": "0"
								}
							]
						}
					},
					"response": []
				},
				{
					"name": "GET Course by Id",
					"protocolProfileBehavior": {
						"disableBodyPruning": true
					},
					"request": {
						"auth": {
							"type": "bearer",
							"bearer": [
								{
									"key": "token",
									"value": "eyJhbGciOiJIUzI1NiIsInR5cCI6IkpXVCJ9.eyJpZCI6MiwiZW1haWwiOiJpbmFAZ21haWwuY29tIiwicm9sZSI6MSwiaWF0IjoxNjI4MzIxNTY3LCJleHAiOjE2MzY5NjE1Njd9.VFaSHxupG3IGM_2uTBGQjxWW8hpMH_xRJZ4SeGoAE_I",
									"type": "string"
								}
							]
						},
						"method": "GET",
						"header": [],
						"body": {
							"mode": "raw",
							"raw": "{\n    \"userId\": 1,\n    \"id\": 1,\n    \"title\": \"Test\",\n    \"body\": \"First steps with Postman\"\n}",
							"options": {
								"raw": {
									"language": "json"
								}
							}
						},
						"url": {
							"raw": "localhost:5000/courses/3",
							"host": [
								"localhost"
							],
							"port": "5000",
							"path": [
								"courses",
								"3"
							]
						}
					},
					"response": []
				},
				{
					"name": "GET My Courses - Teacher / Student",
					"protocolProfileBehavior": {
						"disableBodyPruning": true
					},
					"request": {
						"auth": {
							"type": "bearer",
							"bearer": [
								{
									"key": "token",
									"value": "eyJhbGciOiJIUzI1NiIsInR5cCI6IkpXVCJ9.eyJpZCI6MiwiZW1haWwiOiJpbmFAZ21haWwuY29tIiwicm9sZSI6MSwiaWF0IjoxNjI4MjUzNzAwLCJleHAiOjE2MzY4OTM3MDB9.5HU6Dp70p-eqTT3ZmdXAIjTpaOzNAR3AkvlrYoOb0eM",
									"type": "string"
								}
							]
						},
						"method": "GET",
						"header": [],
						"body": {
							"mode": "raw",
							"raw": "{\n    \"userId\": 1,\n    \"id\": 1,\n    \"title\": \"Test\",\n    \"body\": \"First steps with Postman\"\n}",
							"options": {
								"raw": {
									"language": "json"
								}
							}
						},
						"url": {
							"raw": "localhost:5000/courses/mycourses?limit=2&offset=0",
							"host": [
								"localhost"
							],
							"port": "5000",
							"path": [
								"courses",
								"mycourses"
							],
							"query": [
								{
									"key": "",
									"value": "",
									"disabled": true
								},
								{
									"key": "limit",
									"value": "2"
								},
								{
									"key": "offset",
									"value": "0"
								}
							]
						}
					},
					"response": []
				},
				{
					"name": "GET All Deleted Courses",
					"protocolProfileBehavior": {
						"disableBodyPruning": true
					},
					"request": {
						"auth": {
							"type": "bearer",
							"bearer": [
								{
									"key": "token",
									"value": "eyJhbGciOiJIUzI1NiIsInR5cCI6IkpXVCJ9.eyJpZCI6NCwiZW1haWwiOiJ0ZWFjaGVybmV3QGdtYWlsLmNvbSIsInJvbGUiOjIsImlhdCI6MTYyODI1NzU5MSwiZXhwIjoxNjM2ODk3NTkxfQ.AcbUnx4IYe8EWgbDSU3K_C-5RzfyDZAPBgFfaCeBdgY",
									"type": "string"
								}
							]
						},
						"method": "GET",
						"header": [],
						"body": {
							"mode": "raw",
							"raw": "{\n    \"userId\": 1,\n    \"id\": 1,\n    \"title\": \"Test\",\n    \"body\": \"First steps with Postman\"\n}",
							"options": {
								"raw": {
									"language": "json"
								}
							}
						},
						"url": {
							"raw": "localhost:5000/courses/deleted",
							"host": [
								"localhost"
							],
							"port": "5000",
							"path": [
								"courses",
								"deleted"
							]
						}
					},
					"response": []
				},
				{
					"name": "GET Deleted Course by Id",
					"protocolProfileBehavior": {
						"disableBodyPruning": true
					},
					"request": {
						"auth": {
							"type": "bearer",
							"bearer": [
								{
									"key": "token",
									"value": "eyJhbGciOiJIUzI1NiIsInR5cCI6IkpXVCJ9.eyJpZCI6NCwiZW1haWwiOiJ0ZWFjaGVybmV3QGdtYWlsLmNvbSIsInJvbGUiOjIsImlhdCI6MTYyODI1NzU5MSwiZXhwIjoxNjM2ODk3NTkxfQ.AcbUnx4IYe8EWgbDSU3K_C-5RzfyDZAPBgFfaCeBdgY",
									"type": "string"
								}
							]
						},
						"method": "GET",
						"header": [],
						"body": {
							"mode": "raw",
							"raw": "{\n    \"userId\": 1,\n    \"id\": 1,\n    \"title\": \"Test\",\n    \"body\": \"First steps with Postman\"\n}",
							"options": {
								"raw": {
									"language": "json"
								}
							}
						},
						"url": {
							"raw": "localhost:5000/courses/deleted/6",
							"host": [
								"localhost"
							],
							"port": "5000",
							"path": [
								"courses",
								"deleted",
								"6"
							]
						}
					},
					"response": []
				},
				{
					"name": "POST Create New Course - Validation Fails",
					"request": {
						"auth": {
							"type": "bearer",
							"bearer": [
								{
									"key": "token",
									"value": "eyJhbGciOiJIUzI1NiIsInR5cCI6IkpXVCJ9.eyJpZCI6MywiZW1haWwiOiJ0ZWFjaGVyQGdtYWlsLmNvbSIsInJvbGUiOjIsImlhdCI6MTYyODMxNzAyOSwiZXhwIjoxNjM2OTU3MDI5fQ.m3L6IsYY7Sn9lK0J5Vj19YevBGOWQU73cNFymo4pOwQ",
									"type": "string"
								}
							]
						},
						"method": "POST",
						"header": [],
						"body": {
							"mode": "raw",
							"raw": " {\n    \"title\": \"Angular\"\n    }",
							"options": {
								"raw": {
									"language": "json"
								}
							}
						},
						"url": {
							"raw": "localhost:5000/courses",
							"host": [
								"localhost"
							],
							"port": "5000",
							"path": [
								"courses"
							]
						}
					},
					"response": []
				},
				{
					"name": "POST Create New Course - Duplicate Record",
					"request": {
						"auth": {
							"type": "bearer",
							"bearer": [
								{
									"key": "token",
									"value": "eyJhbGciOiJIUzI1NiIsInR5cCI6IkpXVCJ9.eyJpZCI6MywiZW1haWwiOiJ0ZWFjaGVyQGdtYWlsLmNvbSIsInJvbGUiOjIsImlhdCI6MTYyODM1Nzk5NCwiZXhwIjoxNjM2OTk3OTk0fQ.mMe1w2_XSg3AzTwVqIbsz6c6orC5gcURfvOe56QiZ-k",
									"type": "string"
								}
							]
						},
						"method": "POST",
						"header": [],
						"body": {
							"mode": "raw",
							"raw": " {\n    \"title\": \"Go Course\",\n    \"description\": \"C++ Course for Beginners\",\n    \"isPublic\": 1\n    }",
							"options": {
								"raw": {
									"language": "json"
								}
							}
						},
						"url": {
							"raw": "localhost:5000/courses",
							"host": [
								"localhost"
							],
							"port": "5000",
							"path": [
								"courses"
							]
						}
					},
					"response": []
				},
				{
					"name": "POST Create New Course - SUCCESS - isPublic can be omitted",
					"request": {
						"method": "POST",
						"header": [],
						"body": {
							"mode": "raw",
							"raw": " {\n    \"title\": \"C++ Course 8\",\n    \"description\": \"C++ Course for Beginners\",\n    \"isPublic\": 1\n    }",
							"options": {
								"raw": {
									"language": "json"
								}
							}
						},
						"url": {
							"raw": "localhost:5000/courses",
							"host": [
								"localhost"
							],
							"port": "5000",
							"path": [
								"courses"
							]
						}
					},
					"response": []
				},
				{
					"name": "PUT Update Course - NO Course Found",
					"request": {
						"auth": {
							"type": "bearer",
							"bearer": [
								{
									"key": "token",
									"value": "eyJhbGciOiJIUzI1NiIsInR5cCI6IkpXVCJ9.eyJpZCI6MywiZW1haWwiOiJ0ZWFjaGVyQGdtYWlsLmNvbSIsInJvbGUiOjIsImlhdCI6MTYyODMxNzAyOSwiZXhwIjoxNjM2OTU3MDI5fQ.m3L6IsYY7Sn9lK0J5Vj19YevBGOWQU73cNFymo4pOwQ",
									"type": "string"
								}
							]
						},
						"method": "PUT",
						"header": [],
						"body": {
							"mode": "raw",
							"raw": " {\n    \"title\": \"React Course\",\n    \"description\": \"JavaScript Course for Beginners\",\n    \"isPublic\": \"0\"\n}",
							"options": {
								"raw": {
									"language": "json"
								}
							}
						},
						"url": {
							"raw": "localhost:5000/courses/0",
							"host": [
								"localhost"
							],
							"port": "5000",
							"path": [
								"courses",
								"0"
							]
						}
					},
					"response": []
				},
				{
					"name": "PUT Update Course - Fail Validation",
					"request": {
						"auth": {
							"type": "bearer",
							"bearer": [
								{
									"key": "token",
									"value": "eyJhbGciOiJIUzI1NiIsInR5cCI6IkpXVCJ9.eyJpZCI6MywiZW1haWwiOiJ0ZWFjaGVyQGdtYWlsLmNvbSIsInJvbGUiOjIsImlhdCI6MTYyODM1Nzk5NCwiZXhwIjoxNjM2OTk3OTk0fQ.mMe1w2_XSg3AzTwVqIbsz6c6orC5gcURfvOe56QiZ-k",
									"type": "string"
								}
							]
						},
						"method": "PUT",
						"header": [],
						"body": {
							"mode": "raw",
							"raw": " {\n    \"title\": \"Reac\",\n    \"description\": \"React\",\n    \"isPublic\": \"0\"\n}",
							"options": {
								"raw": {
									"language": "json"
								}
							}
						},
						"url": {
							"raw": "localhost:5000/courses/2",
							"host": [
								"localhost"
							],
							"port": "5000",
							"path": [
								"courses",
								"2"
							]
						}
					},
					"response": []
				},
				{
					"name": "PUT Update Course - Duplicate Title",
					"request": {
						"auth": {
							"type": "bearer",
							"bearer": [
								{
									"key": "token",
									"value": "eyJhbGciOiJIUzI1NiIsInR5cCI6IkpXVCJ9.eyJpZCI6MywiZW1haWwiOiJ0ZWFjaGVyQGdtYWlsLmNvbSIsInJvbGUiOjIsImlhdCI6MTYyODMxNzAyOSwiZXhwIjoxNjM2OTU3MDI5fQ.m3L6IsYY7Sn9lK0J5Vj19YevBGOWQU73cNFymo4pOwQ",
									"type": "string"
								}
							]
						},
						"method": "PUT",
						"header": [],
						"body": {
							"mode": "raw",
							"raw": " {\n    \"title\": \"React\",\n    \"description\": \"C++ for Beginners\",\n    \"isPublic\": \"0\"\n}",
							"options": {
								"raw": {
									"language": "json"
								}
							}
						},
						"url": {
							"raw": "localhost:5000/courses/1",
							"host": [
								"localhost"
							],
							"port": "5000",
							"path": [
								"courses",
								"1"
							]
						}
					},
					"response": []
				},
				{
					"name": "PUT Update Course - SUCCESS",
					"request": {
						"auth": {
							"type": "bearer",
							"bearer": [
								{
									"key": "token",
									"value": "eyJhbGciOiJIUzI1NiIsInR5cCI6IkpXVCJ9.eyJpZCI6MywiZW1haWwiOiJ0ZWFjaGVyQGdtYWlsLmNvbSIsInJvbGUiOjIsImlhdCI6MTYyODMxNzAyOSwiZXhwIjoxNjM2OTU3MDI5fQ.m3L6IsYY7Sn9lK0J5Vj19YevBGOWQU73cNFymo4pOwQ",
									"type": "string"
								}
							]
						},
						"method": "PUT",
						"header": [],
						"body": {
							"mode": "raw",
							"raw": " {\n    \"title\": \"C++ Course\",\n    \"description\": \"C++ for Beginners\",\n    \"isPublic\": \"0\"\n}",
							"options": {
								"raw": {
									"language": "json"
								}
							}
						},
						"url": {
							"raw": "localhost:5000/courses/8",
							"host": [
								"localhost"
							],
							"port": "5000",
							"path": [
								"courses",
								"8"
							]
						}
					},
					"response": []
				},
				{
					"name": "PUT Like/Vote Course - Course",
					"request": {
						"auth": {
							"type": "bearer",
							"bearer": [
								{
									"key": "token",
									"value": "eyJhbGciOiJIUzI1NiIsInR5cCI6IkpXVCJ9.eyJpZCI6MywiZW1haWwiOiJ0ZWFjaGVyQGdtYWlsLmNvbSIsInJvbGUiOjIsImlhdCI6MTYyODI2MDM0OSwiZXhwIjoxNjM2OTAwMzQ5fQ.iVNzxON5GavZIjhuZAFjn-3b_TClEOAL2-38kUjoeP4",
									"type": "string"
								}
							]
						},
						"method": "PUT",
						"header": [],
						"body": {
							"mode": "raw",
							"raw": " {\n    \"title\": \"C++ Course\",\n    \"description\": \"C++ for Beginners\",\n    \"isPublic\": \"0\"\n}",
							"options": {
								"raw": {
									"language": "json"
								}
							}
						},
						"url": {
							"raw": "localhost:5000/courses/2/like",
							"host": [
								"localhost"
							],
							"port": "5000",
							"path": [
								"courses",
								"2",
								"like"
							]
						}
					},
					"response": []
				},
				{
					"name": "PUT Undelete Course by ID - NO Course Found",
					"request": {
						"auth": {
							"type": "bearer",
							"bearer": [
								{
									"key": "token",
									"value": "eyJhbGciOiJIUzI1NiIsInR5cCI6IkpXVCJ9.eyJpZCI6MywiZW1haWwiOiJ0ZWFjaGVyQGdtYWlsLmNvbSIsInJvbGUiOjIsImlhdCI6MTYyODMxNzAyOSwiZXhwIjoxNjM2OTU3MDI5fQ.m3L6IsYY7Sn9lK0J5Vj19YevBGOWQU73cNFymo4pOwQ",
									"type": "string"
								}
							]
						},
						"method": "PUT",
						"header": [],
						"body": {
							"mode": "raw",
							"raw": " {\n    \"title\": \"JavaScript Course\",\n    \"description\": \"JavaScript for Beginners\",\n    \"isPublic\": \"0\"\n}",
							"options": {
								"raw": {
									"language": "json"
								}
							}
						},
						"url": {
							"raw": "localhost:5000/courses/deleted/0",
							"host": [
								"localhost"
							],
							"port": "5000",
							"path": [
								"courses",
								"deleted",
								"0"
							]
						}
					},
					"response": []
				},
				{
					"name": "PUT Undelete Course by ID - SUCCESS",
					"request": {
						"auth": {
							"type": "bearer",
							"bearer": [
								{
									"key": "token",
									"value": "eyJhbGciOiJIUzI1NiIsInR5cCI6IkpXVCJ9.eyJpZCI6MywiZW1haWwiOiJ0ZWFjaGVyQGdtYWlsLmNvbSIsInJvbGUiOjIsImlhdCI6MTYyODMxNzAyOSwiZXhwIjoxNjM2OTU3MDI5fQ.m3L6IsYY7Sn9lK0J5Vj19YevBGOWQU73cNFymo4pOwQ",
									"type": "string"
								}
							]
						},
						"method": "PUT",
						"header": [],
						"body": {
							"mode": "raw",
							"raw": " {\n    \"title\": \"JavaScript Course\",\n    \"description\": \"JavaScript for Beginners\",\n    \"isPublic\": \"0\"\n}",
							"options": {
								"raw": {
									"language": "json"
								}
							}
						},
						"url": {
							"raw": "localhost:5000/courses/deleted/2",
							"host": [
								"localhost"
							],
							"port": "5000",
							"path": [
								"courses",
								"deleted",
								"2"
							]
						}
					},
					"response": []
				},
				{
					"name": "4. DELETE /courses/:id - NOT Found",
					"request": {
						"auth": {
							"type": "bearer",
							"bearer": [
								{
									"key": "token",
									"value": "eyJhbGciOiJIUzI1NiIsInR5cCI6IkpXVCJ9.eyJpZCI6NCwiZW1haWwiOiJ0ZWFjaGVybmV3QGdtYWlsLmNvbSIsInJvbGUiOjIsImlhdCI6MTYyODI1NzU5MSwiZXhwIjoxNjM2ODk3NTkxfQ.AcbUnx4IYe8EWgbDSU3K_C-5RzfyDZAPBgFfaCeBdgY",
									"type": "string"
								}
							]
						},
						"method": "DELETE",
						"header": [
							{
								"key": "Content-Type",
								"name": "Content-Type",
								"value": "application/json",
								"type": "text"
							},
							{
								"key": "Authorization",
								"value": "Bearer eyJhbGciOiJIUzI1NiIsInR5cCI6IkpXVCJ9.eyJpZCI6MTYsInVzZXJuYW1lIjoidG9kb3JkIiwiZGlzcGxheV9uYW1lIjoiVG9kb3IgRCIsInJvbGUiOjEsImlhdCI6MTYyNTQ2NjI2NSwiZXhwIjoxNjI1NDY5ODY1fQ.UoWmzXolVFvghYSWbrd7DkJxl031OofziiRDSCjtqkk",
								"type": "text"
							}
						],
						"url": {
							"raw": "localhost:5000/courses/0",
							"host": [
								"localhost"
							],
							"port": "5000",
							"path": [
								"courses",
								"0"
							]
						}
					},
					"response": []
				},
				{
					"name": "4. DELETE /courses/:id- SUCCESS",
					"request": {
						"auth": {
							"type": "bearer",
							"bearer": [
								{
									"key": "token",
									"value": "eyJhbGciOiJIUzI1NiIsInR5cCI6IkpXVCJ9.eyJpZCI6NCwiZW1haWwiOiJ0ZWFjaGVybmV3QGdtYWlsLmNvbSIsInJvbGUiOjIsImlhdCI6MTYyODI1NzU5MSwiZXhwIjoxNjM2ODk3NTkxfQ.AcbUnx4IYe8EWgbDSU3K_C-5RzfyDZAPBgFfaCeBdgY",
									"type": "string"
								}
							]
						},
						"method": "DELETE",
						"header": [
							{
								"key": "Content-Type",
								"name": "Content-Type",
								"value": "application/json",
								"type": "text"
							},
							{
								"key": "Authorization",
								"value": "Bearer eyJhbGciOiJIUzI1NiIsInR5cCI6IkpXVCJ9.eyJpZCI6MTYsInVzZXJuYW1lIjoidG9kb3JkIiwiZGlzcGxheV9uYW1lIjoiVG9kb3IgRCIsInJvbGUiOjEsImlhdCI6MTYyNTQ2NjI2NSwiZXhwIjoxNjI1NDY5ODY1fQ.UoWmzXolVFvghYSWbrd7DkJxl031OofziiRDSCjtqkk",
								"type": "text"
							}
						],
						"url": {
							"raw": "localhost:5000/courses/6",
							"host": [
								"localhost"
							],
							"port": "5000",
							"path": [
								"courses",
								"6"
							]
						}
					},
					"response": []
				}
			]
		},
		{
			"name": "Sections",
			"item": [
				{
					"name": "POST Create Section - localhost:5000/sections - FAIL Validation",
					"request": {
						"auth": {
							"type": "bearer",
							"bearer": [
								{
									"key": "token",
									"value": "eyJhbGciOiJIUzI1NiIsInR5cCI6IkpXVCJ9.eyJpZCI6MywiZW1haWwiOiJ0ZWFjaGVyQGdtYWlsLmNvbSIsInJvbGUiOjIsImlhdCI6MTYyODQxNDU3NCwiZXhwIjoxNjM3MDU0NTc0fQ.Mk_OA9i10iVZ7xrWo46267v3OQ68hwCmiVIIKsLAjZU",
									"type": "string"
								}
							]
						},
						"method": "POST",
						"header": [],
						"body": {
							"mode": "raw",
							"raw": " {\n    \"courseId\": 1,\n    \"title\": \"Section 10 for JavaScript Course\",\n    \"content\": \"<h1>Welcome</h1>\",\n    \"restrictionDate\": \"2021-08-22 20:21:21\"\n    }",
							"options": {
								"raw": {
									"language": "json"
								}
							}
						},
						"url": {
							"raw": "localhost:5000/sections",
							"host": [
								"localhost"
							],
							"port": "5000",
							"path": [
								"sections"
							]
						}
					},
					"response": []
				},
				{
					"name": "POST Create Section - localhost:5000/sections - SUCCESS Copy 2",
					"request": {
						"auth": {
							"type": "noauth"
						},
						"method": "POST",
						"header": [],
						"body": {
							"mode": "raw",
							"raw": " {\n    \"courseId\": 3,\n    \"title\": \"Section 9 for Angular Course\",\n    \"content\": \"<h1>Welcome</h1>\",\n    \"restrictionDate\": \"2021-08-22 20:21:21.03\"\n    }",
							"options": {
								"raw": {
									"language": "json"
								}
							}
						},
						"url": {
							"raw": "localhost:5000/sections",
							"host": [
								"localhost"
							],
							"port": "5000",
							"path": [
								"sections"
							]
						}
					},
					"response": []
				},
				{
					"name": "PUT Create Section - localhost:5000/sections/:id- SUCCESS",
					"request": {
						"auth": {
							"type": "noauth"
						},
						"method": "PUT",
						"header": [],
						"body": {
							"mode": "raw",
							"raw": " {\n    \"courseId\": 3,\n    \"title\": \"EDITTED Section 1 for Angular Course\",\n    \"content\": \"<h1>Welcome</h1>\",\n    \"restrictionDate\": \"2021-08-22 20:21:21.03\"\n    }",
							"options": {
								"raw": {
									"language": "json"
								}
							}
						},
						"url": {
							"raw": "localhost:5000/sections/:id",
							"host": [
								"localhost"
							],
							"port": "5000",
							"path": [
								"sections",
								":id"
							],
							"variable": [
								{
									"key": "id",
									"value": ""
								}
							]
						}
					},
					"response": []
				},
				{
					"name": "Delete section",
					"request": {
						"auth": {
							"type": "bearer",
							"bearer": [
								{
									"key": "token",
									"value": "eyJhbGciOiJIUzI1NiIsInR5cCI6IkpXVCJ9.eyJpZCI6NSwiZW1haWwiOiJzdHVkZW50QGFidi5iZyIsInJvbGUiOjIsImlhdCI6MTYyODUxMDI5MSwiZXhwIjoxNjI4NTEzODkxfQ.uUz_DrCM0bwMOPkgmzX-zyIggvXZ-TbYJMil2WUWc4s",
									"type": "string"
								}
							]
						},
						"method": "DELETE",
						"header": [],
						"url": {
							"raw": "localhost:5000/sections/3",
							"host": [
								"localhost"
							],
							"port": "5000",
							"path": [
								"sections",
								"3"
							]
						}
					},
					"response": []
				},
				{
					"name": "Get section by id",
					"request": {
						"auth": {
							"type": "bearer",
							"bearer": [
								{
									"key": "token",
									"value": "eyJhbGciOiJIUzI1NiIsInR5cCI6IkpXVCJ9.eyJpZCI6NSwiZW1haWwiOiJzdHVkZW50QGFidi5iZyIsInJvbGUiOjIsImlhdCI6MTYyODUxMDI5MSwiZXhwIjoxNjI4NTEzODkxfQ.uUz_DrCM0bwMOPkgmzX-zyIggvXZ-TbYJMil2WUWc4s",
									"type": "string"
								}
							]
						},
						"method": "GET",
						"header": [],
						"url": {
							"raw": "localhost:5000/sections/3",
							"host": [
								"localhost"
							],
							"port": "5000",
							"path": [
								"sections",
								"3"
							]
						}
					},
					"response": []
				},
				{
					"name": "Get all sections (in a course)",
					"request": {
						"auth": {
							"type": "bearer",
							"bearer": [
								{
									"key": "token",
									"value": "eyJhbGciOiJIUzI1NiIsInR5cCI6IkpXVCJ9.eyJpZCI6NSwiZW1haWwiOiJzdHVkZW50QGFidi5iZyIsInJvbGUiOjIsImlhdCI6MTYyODUxMDI5MSwiZXhwIjoxNjI4NTEzODkxfQ.uUz_DrCM0bwMOPkgmzX-zyIggvXZ-TbYJMil2WUWc4s",
									"type": "string"
								}
							]
						},
						"method": "GET",
						"header": [],
						"url": {
							"raw": "localhost:5000/sections/3",
							"host": [
								"localhost"
							],
							"port": "5000",
							"path": [
								"sections",
								"3"
							]
						}
					},
					"response": []
				}
			]
		}
	]
}